…
2.Rewrite the below code to run without count()

```r
not_cancelled <- flights %>% 
  filter(!is.na(dep_delay), !is.na(arr_delay))
not_cancelled %>% count(dest)
```

```
## # A tibble: 104 × 2
##     dest     n
##    <chr> <int>
## 1    ABQ   254
## 2    ACK   264
## 3    ALB   418
## 4    ANC     8
## 5    ATL 16837
## 6    AUS  2411
## 7    AVL   261
## 8    BDL   412
## 9    BGR   358
## 10   BHM   269
## # ... with 94 more rows
```

```r
not_cancelled %>% count(tailnum, wt = distance)
```

```
## # A tibble: 4,037 × 2
##    tailnum      n
##      <chr>  <dbl>
## 1   D942DN   3418
## 2   N0EGMQ 239143
## 3   N10156 109664
## 4   N102UW  25722
## 5   N103US  24619
## 6   N104UW  24616
## 7   N10575 139903
## 8   N105UW  23618
## 9   N107US  21677
## 10  N108UW  32070
## # ... with 4,027 more rows
```


```r
not_cancelled <- flights %>% 
  filter(!is.na(dep_delay), !is.na(arr_delay))
not_cancelled %>%
  group_by(dest) %>%
  summarise(n = n())
```

```
## # A tibble: 104 × 2
##     dest     n
##    <chr> <int>
## 1    ABQ   254
## 2    ACK   264
## 3    ALB   418
## 4    ANC     8
## 5    ATL 16837
## 6    AUS  2411
## 7    AVL   261
## 8    BDL   412
## 9    BGR   358
## 10   BHM   269
## # ... with 94 more rows
```

```r
not_cancelled %>%
  group_by(tailnum) %>%
  summarise(n = n())
```

```
## # A tibble: 4,037 × 2
##    tailnum     n
##      <chr> <int>
## 1   D942DN     4
## 2   N0EGMQ   352
## 3   N10156   145
## 4   N102UW    48
## 5   N103US    46
## 6   N104UW    46
## 7   N10575   269
## 8   N105UW    45
## 9   N107US    41
## 10  N108UW    60
## # ... with 4,027 more rows
```
…
